a5/cpu_tb.vcd
$date
	Sun Oct 11 18:02:03 2020
$end
$version
	Icarus Verilog
$end
$timescale
	1ps
$end
$scope module cpu_tb $end
$var wire 32 ! daddr [31:0] $end
$var wire 32 " drdata [31:0] $end
$var wire 32 # dwdata [31:0] $end
$var wire 4 $ dwe [3:0] $end
$var wire 32 % iaddr [31:0] $end
$var wire 32 & idata [31:0] $end
$var reg 1 ' clk $end
$var reg 32 ( dtmp [31:0] $end
$var integer 32 ) exp_file [31:0] $end
$var reg 32 * exp_reg [31:0] $end
$var integer 32 + fail [31:0] $end
$var integer 32 , i [31:0] $end
$var integer 32 - log_file [31:0] $end
$var reg 1 . reset $end
$var integer 32 / s [31:0] $end
$scope module u1 $end
$var wire 1 0 clk $end
$var wire 32 1 daddr [31:0] $end
$var wire 32 2 drdata [31:0] $end
$var wire 32 3 dwdata [31:0] $end
$var wire 4 4 dwe [3:0] $end
$var wire 32 5 idata [31:0] $end
$var wire 12 6 offset [11:0] $end
$var wire 6 7 op [5:0] $end
$var wire 32 8 r_rv2 [31:0] $end
$var wire 5 9 rd [4:0] $end
$var wire 1 : reset $end
$var wire 5 ; rs1 [4:0] $end
$var wire 5 < rs2 [4:0] $end
$var wire 32 = rv1 [31:0] $end
$var wire 32 > rv2 [31:0] $end
$var wire 32 ? rvout [31:0] $end
$var wire 32 @ to_reg_data [31:0] $end
$var wire 1 A we $end
$var reg 32 B iaddr [31:0] $end
$scope module u1 $end
$var wire 6 C op [5:0] $end
$var wire 32 D rv1 [31:0] $end
$var wire 32 E rv2 [31:0] $end
$var wire 32 F rv2_imm [31:0] $end
$var reg 32 G rvout [31:0] $end
$upscope $end
$scope module u2 $end
$var wire 1 0 clk $end
$var wire 5 H rd [4:0] $end
$var wire 1 : reset $end
$var wire 5 I rs1 [4:0] $end
$var wire 5 J rs2 [4:0] $end
$var wire 32 K wdata [31:0] $end
$var wire 1 A we $end
$var integer 32 L i [31:0] $end
$var reg 32 M rv1 [31:0] $end
$var reg 32 N rv2 [31:0] $end
$upscope $end
$scope module u3 $end
$var wire 1 0 clk $end
$var wire 32 O instr [31:0] $end
$var wire 32 P r_rv2 [31:0] $end
$var reg 12 Q offset [11:0] $end
$var reg 6 R op [5:0] $end
$var reg 5 S rd [4:0] $end
$var reg 5 T rs1 [4:0] $end
$var reg 5 U rs2 [4:0] $end
$var reg 32 V rv2 [31:0] $end
$var reg 1 W we $end
$upscope $end
$scope module u4 $end
$var wire 32 X drdata [31:0] $end
$var wire 12 Y offset [11:0] $end
$var wire 6 Z op [5:0] $end
$var wire 1 : reset $end
$var wire 32 [ rv1 [31:0] $end
$var wire 32 \ rv2 [31:0] $end
$var reg 32 ] daddr [31:0] $end
$var reg 32 ^ dwdata [31:0] $end
$var reg 4 _ dwe [3:0] $end
$var reg 2 ` remainder [1:0] $end
$var reg 32 a to_reg_data [31:0] $end
$upscope $end
$upscope $end
$scope module u2 $end
$var wire 32 b iaddr [31:0] $end
$var wire 32 c idata [31:0] $end
$upscope $end
$scope module u3 $end
$var wire 30 d a [29:0] $end
$var wire 1 0 clk $end
$var wire 32 e daddr [31:0] $end
$var wire 32 f drdata [31:0] $end
$var wire 32 g dwdata [31:0] $end
$var wire 4 h dwe [3:0] $end
$upscope $end
$upscope $end
$enddefinitions $end
#0
$dumpvars
b0 h
b0 g
b0 f
b0 e
b0 d
b10000001100001110000010010011 c
b0 b
b0 a
bx `
b0 _
b0 ^
b0 ]
b0 \
b0 [
b110 Z
bx Y
b0 X
1W
b100000011 V
b11 U
b1 T
b1 S
b110 R
bx Q
b0 P
b10000001100001110000010010011 O
b0 N
b0 M
b100000 L
b100000011 K
b11 J
b1 I
b1 H
b100000011 G
b100000011 F
b100000011 E
b0 D
b110 C
b0 B
1A
b0 @
b100000011 ?
b100000011 >
b0 =
b11 <
b1 ;
1:
b1 9
b0 8
b110 7
bx 6
b10000001100001110000010010011 5
b0 4
b0 3
b0 2
b0 1
10
bx /
1.
bx -
bx ,
bx +
bx *
bx )
bx (
1'
b10000001100001110000010010011 &
b0 %
b0 $
b0 #
b0 "
b0 !
$end
#5000
0'
00
#10000
b100000 L
1'
10
#15000
0'
00
#20000
b100000 L
1'
10
#25000
0'
00
#30000
b100000 L
1'
10
#35000
0'
00
#40000
b100000 L
1'
10
#45000
0'
00
#50000
b100000 L
1'
10
#55000
0'
00
#60000
b100000 L
1'
10
#65000
0'
00
#70000
b100000 L
1'
10
#75000
0'
00
#80000
b100000 L
1'
10
#85000
0'
00
#90000
b100000 L
1'
10
#95000
0'
00
#100000
b100000011 ^
b100000011 #
b100000011 3
b100000011 g
b100000011 N
b100000011 8
b100000011 P
b100000011 \
b0 K
b11 _
b11 $
b11 4
b11 h
b0 `
b0 G
b0 ?
b0 S
b0 9
b0 H
b1 U
b1 <
b1 J
b0 T
b0 ;
b0 I
0W
0A
b0 Q
b0 6
b0 Y
b11001 R
b11001 7
b11001 C
b11001 Z
b100000001000000100011 &
b100000001000000100011 5
b100000001000000100011 O
b100000001000000100011 c
b0 "
b0 2
b0 X
b0 f
b0 d
b100 B
b100 %
b100 b
b0 ,
b0 ]
b0 !
b0 1
b0 e
1'
10
b10000000000000000000000000000100 )
b10000000000000000000000000000011 -
0.
0:
#105000
0'
00
#110000
b10 d
b1 _
b1 $
b1 4
b1 h
b1000 ]
b1000 !
b1000 1
b1000 e
b1000 S
b1000 9
b1000 H
b1000 Q
b1000 6
b1000 Y
b11000 R
b11000 7
b11000 C
b11000 Z
b100000000010000100011 &
b100000000010000100011 5
b100000000010000100011 O
b100000000010000100011 c
b1 ,
b0 "
b0 2
b0 X
b0 f
b1000 B
b1000 %
b1000 b
1'
10
#115000
0'
00
#120000
b11 K
b0 d
b0 N
b0 8
b0 P
b0 \
b11 a
b11 @
b0 ]
b0 !
b0 1
b0 e
b10 S
b10 9
b10 H
b0 U
b0 <
b0 J
1W
1A
b0 Q
b0 6
b0 Y
b10000 R
b10000 7
b10000 C
b10000 Z
b100000011 &
b100000011 5
b100000011 O
b100000011 c
b1100 B
b1100 %
b1100 b
b100000011 "
b100000011 2
b100000011 X
b100000011 f
b10 ,
1'
10
#125000
0'
00
#130000
b11 K
b11 "
b11 2
b11 X
b11 f
b10 d
b11 a
b11 @
b1000 ]
b1000 !
b1000 1
b1000 e
b100 S
b100 9
b100 H
b1000 U
b1000 <
b1000 J
b1000 Q
b1000 6
b1000 Y
b10010 R
b10010 7
b10010 C
b10010 Z
b100000000010001000000011 &
b100000000010001000000011 5
b100000000010001000000011 O
b100000000010001000000011 c
b11 ,
b10000 B
b10000 %
b10000 b
1'
10
#135000
0'
00
#140000
b11 N
b11 8
b11 P
b11 \
b11 `
b1011 ]
b1011 !
b1011 1
b1011 e
b0 G
b0 ?
b0 K
b11 M
b11 =
b11 D
b11 [
b11 F
b0 a
b0 @
b0 _
b0 $
b0 4
b0 h
b0 ^
b0 #
b0 3
b0 g
b11 S
b11 9
b11 H
b100 U
b100 <
b100 J
b10 T
b10 ;
b10 I
b11 V
b11 >
b11 E
b101000 R
b101000 7
b101000 C
b101000 Z
b1000000010000010000000110110011 &
b1000000010000010000000110110011 5
b1000000010000010000000110110011 O
b1000000010000010000000110110011 c
b10100 B
b10100 %
b10100 b
b100 ,
1'
10
#145000
0'
00
#150000
b0 `
b1000 ]
b1000 !
b1000 1
b1000 e
b100000011 N
b100000011 8
b100000011 P
b100000011 \
b0 M
b0 =
b0 D
b0 [
b1111 _
b1111 $
b1111 4
b1111 h
b100000011 ^
b100000011 #
b100000011 3
b100000011 g
b1000 S
b1000 9
b1000 H
b1 U
b1 <
b1 J
b0 T
b0 ;
b0 I
0W
0A
b11010 R
b11010 7
b11010 C
b11010 Z
b100000010010000100011 &
b100000010010000100011 5
b100000010010000100011 O
b100000010010000100011 c
b101 ,
b11000 B
b11000 %
b11000 b
1'
10
#155000
0'
00
#160000
b100000011 K
b0 d
b0 N
b0 8
b0 P
b0 \
b100000011 a
b100000011 @
b0 ]
b0 !
b0 1
b0 e
b10 S
b10 9
b10 H
b0 U
b0 <
b0 J
1W
1A
b0 Q
b0 6
b0 Y
b10001 R
b10001 7
b10001 C
b10001 Z
b1000100000011 &
b1000100000011 5
b1000100000011 O
b1000100000011 c
b11100 B
b11100 %
b11100 b
b100000011 "
b100000011 2
b100000011 X
b100000011 f
b110 ,
1'
10
#165000
0'
00
#170000
b10 d
b1000 ]
b1000 !
b1000 1
b1000 e
b100 S
b100 9
b100 H
b1000 U
b1000 <
b1000 J
b1000 Q
b1000 6
b1000 Y
b10010 R
b10010 7
b10010 C
b10010 Z
b100000000010001000000011 &
b100000000010001000000011 5
b100000000010001000000011 O
b100000000010001000000011 c
b111 ,
b100000 B
b100000 %
b100000 b
1'
10
#175000
0'
00
#180000
b0 "
b0 2
b0 X
b0 f
b1000010 d
b11 `
b100001011 ]
b100001011 !
b100001011 1
b100001011 e
b0 G
b0 ?
b0 K
b100000011 N
b100000011 8
b100000011 P
b100000011 \
b100000011 M
b100000011 =
b100000011 D
b100000011 [
b100000011 F
b0 a
b0 @
b0 _
b0 $
b0 4
b0 h
b0 ^
b0 #
b0 3
b0 g
b101 S
b101 9
b101 H
b100 U
b100 <
b100 J
b10 T
b10 ;
b10 I
b100000011 V
b100000011 >
b100000011 E
b101000 R
b101000 7
b101000 C
b101000 Z
b1000000010000010000001010110011 &
b1000000010000010000001010110011 5
b1000000010000010000001010110011 O
b1000000010000010000001010110011 c
b100100 B
b100100 %
b100100 b
b1000 ,
1'
10
#185000
0'
00
#190000
b0 F
b100000011 "
b100000011 2
b100000011 X
b100000011 f
b10 d
b0 V
b0 >
b0 E
b0 `
b1000 ]
b1000 !
b1000 1
b1000 e
b0 K
b0 N
b0 8
b0 P
b0 \
b0 M
b0 =
b0 D
b0 [
b0 G
b0 ?
b1010 S
b1010 9
b1010 H
b101 U
b101 <
b101 J
b11 T
b11 ;
b11 I
b100000 R
b100000 7
b100000 C
b100000 Z
b10100011000010100110011 &
b10100011000010100110011 5
b10100011000010100110011 O
b10100011000010100110011 c
b1001 ,
b101000 B
b101000 %
b101000 b
1'
10
#195000
0'
00
#200000
b0 d
b11 K
b11 a
b11 @
b0 ]
b0 !
b0 1
b0 e
b0 S
b0 9
b0 H
b0 U
b0 <
b0 J
b0 T
b0 ;
b0 I
b0 Q
b0 6
b0 Y
b10000 R
b10000 7
b10000 C
b10000 Z
b0 &
b0 5
b0 O
b0 c
b101100 B
b101100 %
b101100 b
b1010 ,
1'
10
#205000
0'
00
#210000
b0 K
b0 a
b0 @
b11 `
b11 ]
b11 !
b11 1
b11 e
b11 N
b11 8
b11 P
b11 \
b11 M
b11 =
b11 D
b11 [
b1011 ,
b110000 B
b110000 %
b110000 b
1'
10
#215000
0'
00
#220000
b11 K
b11 a
b11 @
b0 `
b0 ]
b0 !
b0 1
b0 e
b0 N
b0 8
b0 P
b0 \
b0 M
b0 =
b0 D
b0 [
b110100 B
b110100 %
b110100 b
b1100 ,
1'
10
#225000
0'
00
#230000
b0 K
b0 a
b0 @
b11 `
b11 ]
b11 !
b11 1
b11 e
b11 N
b11 8
b11 P
b11 \
b11 M
b11 =
b11 D
b11 [
b1101 ,
b111000 B
b111000 %
b111000 b
1'
10
#235000
0'
00
#240000
b11 K
b11 a
b11 @
b0 `
b0 ]
b0 !
b0 1
b0 e
b0 N
b0 8
b0 P
b0 \
b0 M
b0 =
b0 D
b0 [
b111100 B
b111100 %
b111100 b
b1110 ,
1'
10
#245000
0'
00
#250000
b0 K
b0 a
b0 @
b11 `
b11 ]
b11 !
b11 1
b11 e
b11 N
b11 8
b11 P
b11 \
b11 M
b11 =
b11 D
b11 [
b1111 ,
b1000000 B
b1000000 %
b1000000 b
1'
10
#255000
0'
00
#260000
b11 K
b11 a
b11 @
b0 `
b0 ]
b0 !
b0 1
b0 e
b0 N
b0 8
b0 P
b0 \
b0 M
b0 =
b0 D
b0 [
b1000100 B
b1000100 %
b1000100 b
b10000 ,
1'
10
#265000
0'
00
#270000
b11 ^
b11 #
b11 3
b11 g
b11 `
b11 ]
b11 !
b11 1
b11 e
b11 N
b11 8
b11 P
b11 \
b11 M
b11 =
b11 D
b11 [
b1111 _
b1111 $
b1111 4
b1111 h
0W
0A
b11010 R
b11010 7
b11010 C
b11010 Z
b10000000100011 &
b10000000100011 5
b10000000100011 O
b10000000100011 c
b10001 ,
b1001000 B
b1001000 %
b1001000 b
1'
10
#275000
0'
00
#280000
b100000011 ^
b100000011 #
b100000011 3
b100000011 g
b1 d
b100000011 N
b100000011 8
b100000011 P
b100000011 \
b111 ]
b111 !
b111 1
b111 e
b100 S
b100 9
b100 H
b1 U
b1 <
b1 J
b100 Q
b100 6
b100 Y
b100000010001000100011 &
b100000010001000100011 5
b100000010001000100011 O
b100000010001000100011 c
b1001100 B
b1001100 %
b1001100 b
b0 "
b0 2
b0 X
b0 f
b10010 ,
1'
10
#285000
0'
00
#290000
b10 d
b1011 ]
b1011 !
b1011 1
b1011 e
b1000 S
b1000 9
b1000 H
b10 U
b10 <
b10 J
b1000 Q
b1000 6
b1000 Y
b1000000010010000100011 &
b1000000010010000100011 5
b1000000010010000100011 O
b1000000010010000100011 c
b10011 ,
b100000011 "
b100000011 2
b100000011 X
b100000011 f
b1010000 B
b1010000 %
b1010000 b
1'
10
#295000
0'
00
#300000
b0 ^
b0 #
b0 3
b0 g
b0 "
b0 2
b0 X
b0 f
b11 d
b0 N
b0 8
b0 P
b0 \
b1111 ]
b1111 !
b1111 1
b1111 e
b1100 S
b1100 9
b1100 H
b11 U
b11 <
b11 J
b1100 Q
b1100 6
b1100 Y
b1100000010011000100011 &
b1100000010011000100011 5
b1100000010011000100011 O
b1100000010011000100011 c
b1010100 B
b1010100 %
b1010100 b
b10100 ,
1'
10
#305000
0'
00
#310000
b100000011 ^
b100000011 #
b100000011 3
b100000011 g
b100 d
b100000011 N
b100000011 8
b100000011 P
b100000011 \
b10011 ]
b10011 !
b10011 1
b10011 e
b10000 S
b10000 9
b10000 H
b100 U
b100 <
b100 J
b10000 Q
b10000 6
b10000 Y
b10000000010100000100011 &
b10000000010100000100011 5
b10000000010100000100011 O
b10000000010100000100011 c
b10101 ,
b1011000 B
b1011000 %
b1011000 b
1'
10
#315000
0'
00
#320000
b0 ^
b0 #
b0 3
b0 g
b101 d
b0 N
b0 8
b0 P
b0 \
b10111 ]
b10111 !
b10111 1
b10111 e
b10100 S
b10100 9
b10100 H
b101 U
b101 <
b101 J
b10100 Q
b10100 6
b10100 Y
b10100000010101000100011 &
b10100000010101000100011 5
b10100000010101000100011 O
b10100000010101000100011 c
b1011100 B
b1011100 %
b1011100 b
b0 "
b0 2
b0 X
b0 f
b10110 ,
1'
10
#325000
0'
00
#330000
b110 d
b11011 ]
b11011 !
b11011 1
b11011 e
b11000 S
b11000 9
b11000 H
b110 U
b110 <
b110 J
b11000 Q
b11000 6
b11000 Y
b11000000010110000100011 &
b11000000010110000100011 5
b11000000010110000100011 O
b11000000010110000100011 c
b10111 ,
b1100000 B
b1100000 %
b1100000 b
1'
10
#335000
0'
00
#340000
b111 d
b11111 ]
b11111 !
b11111 1
b11111 e
b11100 S
b11100 9
b11100 H
b111 U
b111 <
b111 J
b11100 Q
b11100 6
b11100 Y
b11100000010111000100011 &
b11100000010111000100011 5
b11100000010111000100011 O
b11100000010111000100011 c
b1100100 B
b1100100 %
b1100100 b
b11000 ,
1'
10
#345000
0'
00
#350000
b1000 d
b100011 ]
b100011 !
b100011 1
b100011 e
b0 S
b0 9
b0 H
b1000 U
b1000 <
b1000 J
b100000 Q
b100000 6
b100000 Y
b10100000000010000000100011 &
b10100000000010000000100011 5
b10100000000010000000100011 O
b10100000000010000000100011 c
b11001 ,
b1101000 B
b1101000 %
b1101000 b
1'
10
#355000
0'
00
#360000
b1001 d
b100111 ]
b100111 !
b100111 1
b100111 e
b100 S
b100 9
b100 H
b1001 U
b1001 <
b1001 J
b100100 Q
b100100 6
b100100 Y
b10100100000010001000100011 &
b10100100000010001000100011 5
b10100100000010001000100011 O
b10100100000010001000100011 c
b1101100 B
b1101100 %
b1101100 b
b11010 ,
1'
10
#365000
0'
00
#370000
b1010 d
b101011 ]
b101011 !
b101011 1
b101011 e
b1000 S
b1000 9
b1000 H
b1010 U
b1010 <
b1010 J
b101000 Q
b101000 6
b101000 Y
b10101000000010010000100011 &
b10101000000010010000100011 5
b10101000000010010000100011 O
b10101000000010010000100011 c
b11011 ,
b1110000 B
b1110000 %
b1110000 b
1'
10
#375000
0'
00
#380000
b1011 d
b101111 ]
b101111 !
b101111 1
b101111 e
b1100 S
b1100 9
b1100 H
b1011 U
b1011 <
b1011 J
b101100 Q
b101100 6
b101100 Y
b10101100000010011000100011 &
b10101100000010011000100011 5
b10101100000010011000100011 O
b10101100000010011000100011 c
b1110100 B
b1110100 %
b1110100 b
b11100 ,
1'
10
#385000
0'
00
#390000
b1100 d
b110011 ]
b110011 !
b110011 1
b110011 e
b10000 S
b10000 9
b10000 H
b1100 U
b1100 <
b1100 J
b110000 Q
b110000 6
b110000 Y
b10110000000010100000100011 &
b10110000000010100000100011 5
b10110000000010100000100011 O
b10110000000010100000100011 c
b11101 ,
b1111000 B
b1111000 %
b1111000 b
1'
10
#395000
0'
00
#400000
b1101 d
b110111 ]
b110111 !
b110111 1
b110111 e
b10100 S
b10100 9
b10100 H
b1101 U
b1101 <
b1101 J
b110100 Q
b110100 6
b110100 Y
b10110100000010101000100011 &
b10110100000010101000100011 5
b10110100000010101000100011 O
b10110100000010101000100011 c
b1111100 B
b1111100 %
b1111100 b
b11110 ,
1'
10
#405000
0'
00
#410000
b1110 d
b111011 ]
b111011 !
b111011 1
b111011 e
b11000 S
b11000 9
b11000 H
b1110 U
b1110 <
b1110 J
b111000 Q
b111000 6
b111000 Y
b10111000000010110000100011 &
b10111000000010110000100011 5
b10111000000010110000100011 O
b10111000000010110000100011 c
b11111 ,
b10000000 B
b10000000 %
b10000000 b
1'
10
#415000
0'
00
#420000
b1111 d
b111111 ]
b111111 !
b111111 1
b111111 e
b11100 S
b11100 9
b11100 H
b1111 U
b1111 <
b1111 J
b111100 Q
b111100 6
b111100 Y
b10111100000010111000100011 &
b10111100000010111000100011 5
b10111100000010111000100011 O
b10111100000010111000100011 c
b10000100 B
b10000100 %
b10000100 b
b100000 ,
1'
10
#425000
0'
00
#430000
b10000 d
b1000011 ]
b1000011 !
b1000011 1
b1000011 e
b0 S
b0 9
b0 H
b10000 U
b10000 <
b10000 J
b1000000 Q
b1000000 6
b1000000 Y
b101000000000010000000100011 &
b101000000000010000000100011 5
b101000000000010000000100011 O
b101000000000010000000100011 c
b100001 ,
b10001000 B
b10001000 %
b10001000 b
1'
10
#435000
0'
00
#440000
b10001 d
b1000111 ]
b1000111 !
b1000111 1
b1000111 e
b100 S
b100 9
b100 H
b10001 U
b10001 <
b10001 J
b1000100 Q
b1000100 6
b1000100 Y
b101000100000010001000100011 &
b101000100000010001000100011 5
b101000100000010001000100011 O
b101000100000010001000100011 c
b10001100 B
b10001100 %
b10001100 b
b100010 ,
1'
10
#445000
0'
00
#450000
b10010 d
b1001011 ]
b1001011 !
b1001011 1
b1001011 e
b1000 S
b1000 9
b1000 H
b10010 U
b10010 <
b10010 J
b1001000 Q
b1001000 6
b1001000 Y
b101001000000010010000100011 &
b101001000000010010000100011 5
b101001000000010010000100011 O
b101001000000010010000100011 c
b100011 ,
b10010000 B
b10010000 %
b10010000 b
1'
10
#455000
0'
00
#460000
b10011 d
b1001111 ]
b1001111 !
b1001111 1
b1001111 e
b1100 S
b1100 9
b1100 H
b10011 U
b10011 <
b10011 J
b1001100 Q
b1001100 6
b1001100 Y
b101001100000010011000100011 &
b101001100000010011000100011 5
b101001100000010011000100011 O
b101001100000010011000100011 c
b10010100 B
b10010100 %
b10010100 b
b100100 ,
1'
10
#465000
0'
00
#470000
b10100 d
b1010011 ]
b1010011 !
b1010011 1
b1010011 e
b10000 S
b10000 9
b10000 H
b10100 U
b10100 <
b10100 J
b1010000 Q
b1010000 6
b1010000 Y
b101010000000010100000100011 &
b101010000000010100000100011 5
b101010000000010100000100011 O
b101010000000010100000100011 c
b100101 ,
b10011000 B
b10011000 %
b10011000 b
1'
10
#475000
0'
00
#480000
b10101 d
b1010111 ]
b1010111 !
b1010111 1
b1010111 e
b10100 S
b10100 9
b10100 H
b10101 U
b10101 <
b10101 J
b1010100 Q
b1010100 6
b1010100 Y
b101010100000010101000100011 &
b101010100000010101000100011 5
b101010100000010101000100011 O
b101010100000010101000100011 c
b10011100 B
b10011100 %
b10011100 b
b100110 ,
1'
10
#485000
0'
00
#490000
b10110 d
b1011011 ]
b1011011 !
b1011011 1
b1011011 e
b11000 S
b11000 9
b11000 H
b10110 U
b10110 <
b10110 J
b1011000 Q
b1011000 6
b1011000 Y
b101011000000010110000100011 &
b101011000000010110000100011 5
b101011000000010110000100011 O
b101011000000010110000100011 c
b100111 ,
b10100000 B
b10100000 %
b10100000 b
1'
10
#495000
0'
00
#500000
b10111 d
b1011111 ]
b1011111 !
b1011111 1
b1011111 e
b11100 S
b11100 9
b11100 H
b10111 U
b10111 <
b10111 J
b1011100 Q
b1011100 6
b1011100 Y
b101011100000010111000100011 &
b101011100000010111000100011 5
b101011100000010111000100011 O
b101011100000010111000100011 c
b10100100 B
b10100100 %
b10100100 b
b101000 ,
1'
10
#505000
0'
00
#510000
b11000 d
b1100011 ]
b1100011 !
b1100011 1
b1100011 e
b0 S
b0 9
b0 H
b11000 U
b11000 <
b11000 J
b1100000 Q
b1100000 6
b1100000 Y
b111100000000010000000100011 &
b111100000000010000000100011 5
b111100000000010000000100011 O
b111100000000010000000100011 c
b101001 ,
b10101000 B
b10101000 %
b10101000 b
1'
10
#515000
0'
00
#520000
b11001 d
b1100111 ]
b1100111 !
b1100111 1
b1100111 e
b100 S
b100 9
b100 H
b11001 U
b11001 <
b11001 J
b1100100 Q
b1100100 6
b1100100 Y
b111100100000010001000100011 &
b111100100000010001000100011 5
b111100100000010001000100011 O
b111100100000010001000100011 c
b10101100 B
b10101100 %
b10101100 b
b101010 ,
1'
10
#525000
0'
00
#530000
b11010 d
b1101011 ]
b1101011 !
b1101011 1
b1101011 e
b1000 S
b1000 9
b1000 H
b11010 U
b11010 <
b11010 J
b1101000 Q
b1101000 6
b1101000 Y
b111101000000010010000100011 &
b111101000000010010000100011 5
b111101000000010010000100011 O
b111101000000010010000100011 c
b101011 ,
b10110000 B
b10110000 %
b10110000 b
1'
10
#535000
0'
00
#540000
b11011 d
b1101111 ]
b1101111 !
b1101111 1
b1101111 e
b1100 S
b1100 9
b1100 H
b11011 U
b11011 <
b11011 J
b1101100 Q
b1101100 6
b1101100 Y
b111101100000010011000100011 &
b111101100000010011000100011 5
b111101100000010011000100011 O
b111101100000010011000100011 c
b10110100 B
b10110100 %
b10110100 b
b101100 ,
1'
10
#545000
0'
00
#550000
b11100 d
b1110011 ]
b1110011 !
b1110011 1
b1110011 e
b10000 S
b10000 9
b10000 H
b11100 U
b11100 <
b11100 J
b1110000 Q
b1110000 6
b1110000 Y
b111110000000010100000100011 &
b111110000000010100000100011 5
b111110000000010100000100011 O
b111110000000010100000100011 c
b101101 ,
b10111000 B
b10111000 %
b10111000 b
1'
10
#555000
0'
00
#560000
b11101 d
b1110111 ]
b1110111 !
b1110111 1
b1110111 e
b10100 S
b10100 9
b10100 H
b11101 U
b11101 <
b11101 J
b1110100 Q
b1110100 6
b1110100 Y
b111110100000010101000100011 &
b111110100000010101000100011 5
b111110100000010101000100011 O
b111110100000010101000100011 c
b10111100 B
b10111100 %
b10111100 b
b101110 ,
1'
10
#565000
0'
00
#570000
b11110 d
b1111011 ]
b1111011 !
b1111011 1
b1111011 e
b11000 S
b11000 9
b11000 H
b11110 U
b11110 <
b11110 J
b1111000 Q
b1111000 6
b1111000 Y
b111111000000010110000100011 &
b111111000000010110000100011 5
b111111000000010110000100011 O
b111111000000010110000100011 c
b101111 ,
b11000000 B
b11000000 %
b11000000 b
1'
10
#575000
0'
00
#580000
b11111 d
b1111111 ]
b1111111 !
b1111111 1
b1111111 e
b11100 S
b11100 9
b11100 H
b11111 U
b11111 <
b11111 J
b1111100 Q
b1111100 6
b1111100 Y
b111111100000010111000100011 &
b111111100000010111000100011 5
b111111100000010111000100011 O
b111111100000010111000100011 c
b11000100 B
b11000100 %
b11000100 b
b110000 ,
1'
10
#585000
0'
00
#590000
b0 K
b11 "
b11 2
b11 X
b11 f
b0 d
b11 N
b11 8
b11 P
b11 \
b0 a
b0 @
b11 ]
b11 !
b11 1
b11 e
b0 S
b0 9
b0 H
b0 U
b0 <
b0 J
1W
1A
b0 Q
b0 6
b0 Y
b10000 R
b10000 7
b10000 C
b10000 Z
b0 &
b0 5
b0 O
b0 c
b110001 ,
b11001000 B
b11001000 %
b11001000 b
1'
10
#595000
0'
00
#600000
b0 `
b0 ]
b0 !
b0 1
b0 e
b0 N
b0 8
b0 P
b0 \
b0 M
b0 =
b0 D
b0 [
b11001100 B
b11001100 %
b11001100 b
b0 "
b0 2
b0 X
b0 f
b110010 ,
1'
10
#605000
0'
00
#610000
b110011 ,
b11010000 B
b11010000 %
b11010000 b
1'
10
#615000
0'
00
#620000
b11010100 B
b11010100 %
b11010100 b
b110100 ,
1'
10
#625000
0'
00
#630000
b110101 ,
b11011000 B
b11011000 %
b11011000 b
1'
10
#635000
0'
00
#640000
b11011100 B
b11011100 %
b11011100 b
b110110 ,
1'
10
#645000
0'
00
#650000
b110111 ,
b11100000 B
b11100000 %
b11100000 b
1'
10
#655000
0'
00
#660000
b11100100 B
b11100100 %
b11100100 b
b111000 ,
1'
10
#665000
0'
00
#670000
b111001 ,
b11101000 B
b11101000 %
b11101000 b
1'
10
#675000
0'
00
#680000
b11101100 B
b11101100 %
b11101100 b
b111010 ,
1'
10
#685000
0'
00
#690000
b111011 ,
b11110000 B
b11110000 %
b11110000 b
1'
10
#695000
0'
00
#700000
b11110100 B
b11110100 %
b11110100 b
b111100 ,
1'
10
#705000
0'
00
#710000
b111101 ,
b11111000 B
b11111000 %
b11111000 b
1'
10
#715000
0'
00
#720000
b11111100 B
b11111100 %
b11111100 b
b111110 ,
1'
10
#725000
0'
00
#730000
b111111 ,
b100000000 B
b100000000 %
b100000000 b
1'
10
#735000
0'
00
#740000
b100000100 B
b100000100 %
b100000100 b
b1000000 ,
1'
10
#745000
0'
00
#750000
b1000001 ,
b100001000 B
b100001000 %
b100001000 b
1'
10
#755000
0'
00
#760000
b100001100 B
b100001100 %
b100001100 b
b1000010 ,
1'
10
#765000
0'
00
#770000
b1000011 ,
b100010000 B
b100010000 %
b100010000 b
1'
10
#775000
0'
00
#780000
b100010100 B
b100010100 %
b100010100 b
b1000100 ,
1'
10
#785000
0'
00
#790000
b1000101 ,
b100011000 B
b100011000 %
b100011000 b
1'
10
#795000
0'
00
#800000
b100011100 B
b100011100 %
b100011100 b
b1000110 ,
1'
10
#805000
0'
00
#810000
b1000111 ,
b100100000 B
b100100000 %
b100100000 b
1'
10
#815000
0'
00
#820000
b100100100 B
b100100100 %
b100100100 b
b1001000 ,
1'
10
#825000
0'
00
#830000
b1001001 ,
b100101000 B
b100101000 %
b100101000 b
1'
10
#835000
0'
00
#840000
b100101100 B
b100101100 %
b100101100 b
b1001010 ,
1'
10
#845000
0'
00
#850000
b1001011 ,
b100110000 B
b100110000 %
b100110000 b
1'
10
#855000
0'
00
#860000
b100110100 B
b100110100 %
b100110100 b
b1001100 ,
1'
10
#865000
0'
00
#870000
b1001101 ,
b100111000 B
b100111000 %
b100111000 b
1'
10
#875000
0'
00
#880000
b100111100 B
b100111100 %
b100111100 b
b1001110 ,
1'
10
#885000
0'
00
#890000
b1001111 ,
b101000000 B
b101000000 %
b101000000 b
1'
10
#895000
0'
00
#900000
b101000100 B
b101000100 %
b101000100 b
b1010000 ,
1'
10
#905000
0'
00
#910000
b1010001 ,
b101001000 B
b101001000 %
b101001000 b
1'
10
#915000
0'
00
#920000
b101001100 B
b101001100 %
b101001100 b
b1010010 ,
1'
10
#925000
0'
00
#930000
b1010011 ,
b101010000 B
b101010000 %
b101010000 b
1'
10
#935000
0'
00
#940000
b101010100 B
b101010100 %
b101010100 b
b1010100 ,
1'
10
#945000
0'
00
#950000
b1010101 ,
b101011000 B
b101011000 %
b101011000 b
1'
10
#955000
0'
00
#960000
b101011100 B
b101011100 %
b101011100 b
b1010110 ,
1'
10
#965000
0'
00
#970000
b1010111 ,
b101100000 B
b101100000 %
b101100000 b
1'
10
#975000
0'
00
#980000
b101100100 B
b101100100 %
b101100100 b
b1011000 ,
1'
10
#985000
0'
00
#990000
b1011001 ,
b101101000 B
b101101000 %
b101101000 b
1'
10
#995000
0'
00
#1000000
b101101100 B
b101101100 %
b101101100 b
b1011010 ,
1'
10
#1005000
0'
00
#1010000
b1011011 ,
b101110000 B
b101110000 %
b101110000 b
1'
10
#1015000
0'
00
#1020000
b101110100 B
b101110100 %
b101110100 b
b1011100 ,
1'
10
#1025000
0'
00
#1030000
b1011101 ,
b101111000 B
b101111000 %
b101111000 b
1'
10
#1035000
0'
00
#1040000
b101111100 B
b101111100 %
b101111100 b
b1011110 ,
1'
10
#1045000
0'
00
#1050000
b1011111 ,
b110000000 B
b110000000 %
b110000000 b
1'
10
#1055000
0'
00
#1060000
b110000100 B
b110000100 %
b110000100 b
b1100000 ,
1'
10
#1065000
0'
00
#1070000
b1100001 ,
b110001000 B
b110001000 %
b110001000 b
1'
10
#1075000
0'
00
#1080000
b110001100 B
b110001100 %
b110001100 b
b1100010 ,
1'
10
#1085000
0'
00
#1090000
b1100011 ,
b110010000 B
b110010000 %
b110010000 b
1'
10
#1095000
0'
00
